simChef culinary school 🍳
…
```
## 25 reps completed (totals: 25/25) | time taken: 0.261436 minutes
```

```
## ==============================
```

```r
my_results
```

```
## # A tibble: 75 × 5
##    .rep  .dgp_name .method_name     n result1
##    <chr> <chr>     <chr>        <dbl>   <dbl>
##  1 1     my-dgp    my-method       10 -0.392 
##  2 1     my-dgp    my-method      100 -0.0204
##  3 1     my-dgp    my-method     1000 -0.0568
##  4 2     my-dgp    my-method       10  0.259 
##  5 2     my-dgp    my-method      100  0.0202
##  6 2     my-dgp    my-method     1000  0.0581
##  7 3     my-dgp    my-method       10 -0.0403
##  8 3     my-dgp    my-method      100 -0.205 
##  9 3     my-dgp    my-method     1000 -0.101 
## 10 4     my-dgp    my-method       10 -0.514 
## # … with 65 more rows
```
…
```
## No visualizers to visualize. Skipping visualization.
```

```
## ==============================
```

```r
results
```

```
## $fit_results
## # A tibble: 126 × 8
##    .rep  .dgp_name .method_name     n nonzero_coeff alpha fit     coeff      
##    <chr> <chr>     <chr>        <dbl> <list>        <dbl> <list>  <list>     
##  1 1     dense     elnet           NA <NULL>         0    <elnet> <dbl [5]>  
##  2 1     dense     elnet           NA <NULL>         0.25 <elnet> <dbl [5]>  
##  3 1     dense     elnet           NA <NULL>         0.5  <elnet> <dbl [5]>  
##  4 1     dense     elnet           NA <NULL>         0.75 <elnet> <dbl [5]>  
##  5 1     dense     elnet           NA <NULL>         1    <elnet> <dbl [5]>  
##  6 1     dense     ols             NA <NULL>        NA    <lm>    <dbl [5]>  
##  7 1     sparse    elnet          100 <dbl [4]>      0    <elnet> <dbl [100]>
##  8 1     sparse    elnet          100 <dbl [4]>      0.25 <elnet> <dbl [100]>
##  9 1     sparse    elnet          100 <dbl [4]>      0.5  <elnet> <dbl [100]>
## 10 1     sparse    elnet          100 <dbl [4]>      0.75 <elnet> <dbl [100]>
## # … with 116 more rows
## 
## $eval_results
## NULL
## 
## $viz_results
## NULL
```
…
